{
    "page": 2,
    "pageSize": 20,
    "totalPages": 2,
    "totalRecords": 21,
    "data": [
        {
            "id": "1332f5d3-1869-47b8-8e6c-5e4840dc8050",
            "name": "Another project 19",
            "description": "If you're reading this its two late",
            "queryid": null,
            "ownerid": "82d151f8-1a84-4e19-a1e2-ff949f588856",
            "created": "2021-12-08T11:12:42.964849"
        }
    ]
}
